Beck Tolle - Project #2
…
Project #2

Set Up

For my final project I’m going to be anaylzing the outer_space_objects dataset. Let’s start by loading it in and looking at the structure of the dataset.

outer_space_objects

# A tibble: 1,175 × 4
   Entity  Code   Year num_objects
   <chr>   <chr> <dbl>       <dbl>
 1 APSCO   <NA>   2023           1
 2 Algeria DZA    2002           1
 3 Algeria DZA    2010           1
 4 Algeria DZA    2016           3
 5 Algeria DZA    2017           1
 6 Angola  AGO    2017           1
 7 Angola  AGO    2022           1
 8 Arabsat <NA>   1985           2
 9 Arabsat <NA>   1992           1
10 Arabsat <NA>   1996           2
# ℹ 1,165 more rows
…
RASCOM: Regional African Satellite Communication Organization

Sea Launch: Multinational Launch Company (defunct).

Starsem: Russian company made for the Souyez launch.

World: World data set.

Looks like you can categorize these into multinational and private organizations.

outer_space_objects$Organization <- "Country"
outer_space_objects %>% arrange(Code)

# A tibble: 1,175 × 5
   Entity               Code   Year num_objects Organization
   <chr>                <chr> <dbl>       <dbl> <chr>       
 1 Angola               AGO    2017           1 Country     
 2 Angola               AGO    2022           1 Country     
 3 United Arab Emirates ARE    2000           1 Country     
 4 United Arab Emirates ARE    2003           1 Country     
 5 United Arab Emirates ARE    2008           1 Country     
 6 United Arab Emirates ARE    2009           1 Country     
 7 United Arab Emirates ARE    2011           1 Country     
 8 United Arab Emirates ARE    2012           1 Country     
 9 United Arab Emirates ARE    2013           1 Country     
10 United Arab Emirates ARE    2017           1 Country     
# ℹ 1,165 more rows
…
The amount of objects launched into space have only significantly increased in the last 15 years, this is almost certainly due to the internet age.

outer_space_objects2 <- outer_space_objects %>%
select(-Year)%>%
  group_by(Entity)%>%
    summarise(across(num_objects, sum))%>%
  arrange(desc(num_objects))

I’ve removed the year column and combined each country data set so we have a flat rate of total objects launched.

# A tibble: 109 × 2
   Entity                num_objects
   <chr>                       <dbl>
 1 World                       17263
 2 United States                9632
 3 Russia                       3723
 4 China                        1051
 5 United Kingdom                765
 6 Japan                         325
 7 France                        151
 8 India                         144
 9 Germany                       120
10 European Space Agency         104
# ℹ 99 more rows
…
